%!PS-Adobe-3.0
%%Creator: PCBNEW
%%CreationDate: Thu Jan 27 22:31:16 2022
%%Title: ()
%%Pages: 1
%%PageOrder: Ascend
%%BoundingBox: 0 0 596 842
%%DocumentMedia: A4 595 842 0 () ()
%%Orientation: Landscape
%%EndComments
%%BeginProlog
/line { newpath moveto lineto stroke } bind def
/cir0 { newpath 0 360 arc stroke } bind def
/cir1 { newpath 0 360 arc gsave fill grestore stroke } bind def
/cir2 { newpath 0 360 arc gsave fill grestore stroke } bind def
/arc0 { newpath arc stroke } bind def
/arc1 { newpath 4 index 4 index moveto arc closepath gsave fill
    grestore stroke } bind def
/arc2 { newpath 4 index 4 index moveto arc closepath gsave fill
    grestore stroke } bind def
/poly0 { stroke } bind def
/poly1 { closepath gsave fill grestore stroke } bind def
/poly2 { closepath gsave fill grestore stroke } bind def
/rect0 { rectstroke } bind def
/rect1 { rectfill } bind def
/rect2 { rectfill } bind def
/linemode0 { 0 setlinecap 0 setlinejoin 0 setlinewidth } bind def
/linemode1 { 1 setlinecap 1 setlinejoin } bind def
/dashedline { [200] 100 setdash } bind def
/solidline { [] 0 setdash } bind def
/phantomshow { moveto
    /KicadFont findfont 0.000001 scalefont setfont
    show } bind def
/textshow { gsave
    findfont exch scalefont setfont concat 1 scale 0 0 moveto show
    } bind def
/reencodefont {
  findfont dup length dict begin
  { 1 index /FID ne
    { def }
    { pop pop } ifelse
  } forall
  /Encoding ISOLatin1Encoding def
  currentdict
  end } bind def
/KicadFont /Helvetica reencodefont definefont pop
/KicadFont-Bold /Helvetica-Bold reencodefont definefont pop
/KicadFont-Oblique /Helvetica-Oblique reencodefont definefont pop
/KicadFont-BoldOblique /Helvetica-BoldOblique reencodefont definefont pop
%%EndProlog
%%Page: 1 1
%%BeginPageSetup
gsave
0.0072 0.0072 scale
linemode1
82680 0 translate 90 rotate
130.302 setlinewidth
%%EndPageSetup
0 0 0 setrgbcolor
65.1512 setlinewidth
newpath
78010.4 35724.6 moveto
78010.4 80027.4 lineto
stroke
0 0 0 setrgbcolor
newpath
39571.2 35073.1 moveto
77358.8 35073.1 lineto
stroke
0 0 0 setrgbcolor
newpath
38919.6 80027.4 moveto
38919.6 35724.6 lineto
stroke
0 0 0 setrgbcolor
newpath
77358.8 80678.9 moveto
39571.2 80678.9 lineto
stroke
0 0 0 setrgbcolor
77358.8 80027.4 651.512 -0 90 arc0
0 0 0 setrgbcolor
77358.8 35724.6 651.512 -90 -0 arc0
0 0 0 setrgbcolor
39571.2 35724.6 651.512 -180 -90 arc0
0 0 0 setrgbcolor
39571.2 80027.4 651.512 90 180 arc0
130.302 setlinewidth
71.6663 setlinewidth
newpath
54454.3 66160 moveto
55171 65443.3 lineto
stroke
newpath
55171 66160 moveto
54454.3 65443.3 lineto
stroke
newpath
55199 42082 moveto
55915.6 41365.4 lineto
stroke
newpath
55915.6 42082 moveto
55199 41365.4 lineto
stroke
newpath
55995.8 69139 moveto
56712.4 68422.4 lineto
stroke
newpath
56712.4 69139 moveto
55995.8 68422.4 lineto
stroke
newpath
56060.9 47484.4 moveto
56777.6 46767.7 lineto
stroke
newpath
56777.6 47484.4 moveto
56060.9 46767.7 lineto
stroke
newpath
57650.6 69139 moveto
58367.3 68422.4 lineto
stroke
newpath
58367.3 69139 moveto
57650.6 68422.4 lineto
stroke
newpath
57715.8 47484.4 moveto
58432.4 46767.7 lineto
stroke
newpath
58432.4 47484.4 moveto
57715.8 46767.7 lineto
stroke
newpath
59253.3 63760.5 moveto
59970 63043.8 lineto
stroke
newpath
59970 63760.5 moveto
59253.3 63043.8 lineto
stroke
newpath
59253.3 58795.9 moveto
59970 58079.3 lineto
stroke
newpath
59970 58795.9 moveto
59253.3 58079.3 lineto
stroke
newpath
59305.5 69139 moveto
60022.1 68422.4 lineto
stroke
newpath
60022.1 69139 moveto
59305.5 68422.4 lineto
stroke
newpath
59370.6 47484.4 moveto
60087.3 46767.7 lineto
stroke
newpath
60087.3 47484.4 moveto
59370.6 46767.7 lineto
stroke
newpath
59418.8 66160 moveto
60135.5 65443.3 lineto
stroke
newpath
60135.5 66160 moveto
59418.8 65443.3 lineto
stroke
newpath
60163.5 42082 moveto
60880.2 41365.4 lineto
stroke
newpath
60880.2 42082 moveto
60163.5 41365.4 lineto
stroke
77.7775 setlinewidth
42046.9 59412.3 388.888 cir0
42046.9 57132 388.888 cir0
75078.6 66313.1 388.888 cir0
75078.6 64032.8 388.888 cir0
75143.7 51751.8 388.888 cir0
75143.7 49471.5 388.888 cir0
130.302 setlinewidth
78.7404 setlinewidth
0 0 0 setrgbcolor
0 0 0 setrgbcolor
newpath
39901.3 33818.2 moveto
39901.3 34605.6 lineto
40088.8 34605.6 lineto
40201.3 34568.1 lineto
40276.3 34493.1 lineto
40313.8 34418.1 lineto
40351.3 34268.1 lineto
40351.3 34155.6 lineto
40313.8 34005.6 lineto
40276.3 33930.6 lineto
40201.3 33855.7 lineto
40088.8 33818.2 lineto
39901.3 33818.2 lineto
stroke
newpath
40688.7 33818.2 moveto
40688.7 34343.1 lineto
stroke
newpath
40688.7 34193.1 moveto
40726.2 34268.1 lineto
40763.7 34305.6 lineto
40838.7 34343.1 lineto
40913.7 34343.1 lineto
stroke
newpath
41176.2 33818.2 moveto
41176.2 34343.1 lineto
stroke
newpath
41176.2 34605.6 moveto
41138.7 34568.1 lineto
41176.2 34530.6 lineto
41213.6 34568.1 lineto
41176.2 34605.6 lineto
41176.2 34530.6 lineto
stroke
newpath
41663.6 33818.2 moveto
41588.6 33855.7 lineto
41551.1 33930.6 lineto
41551.1 34605.6 lineto
stroke
newpath
42076 33818.2 moveto
42001.1 33855.7 lineto
41963.6 33930.6 lineto
41963.6 34605.6 lineto
stroke
newpath
42975.9 33818.2 moveto
42975.9 34605.6 lineto
43238.4 34043.1 lineto
43500.9 34605.6 lineto
43500.9 33818.2 lineto
stroke
newpath
44213.3 33818.2 moveto
44213.3 34230.6 lineto
44175.8 34305.6 lineto
44100.8 34343.1 lineto
43950.8 34343.1 lineto
43875.8 34305.6 lineto
stroke
newpath
44213.3 33855.7 moveto
44138.3 33818.2 lineto
43950.8 33818.2 lineto
43875.8 33855.7 lineto
43838.3 33930.6 lineto
43838.3 34005.6 lineto
43875.8 34080.6 lineto
43950.8 34118.1 lineto
44138.3 34118.1 lineto
44213.3 34155.6 lineto
stroke
newpath
44588.2 34343.1 moveto
44588.2 33555.7 lineto
stroke
newpath
44588.2 34305.6 moveto
44663.2 34343.1 lineto
44813.2 34343.1 lineto
44888.2 34305.6 lineto
44925.7 34268.1 lineto
44963.2 34193.1 lineto
44963.2 33968.1 lineto
44925.7 33893.1 lineto
44888.2 33855.7 lineto
44813.2 33818.2 lineto
44663.2 33818.2 lineto
44588.2 33855.7 lineto
stroke
newpath
45300.6 33893.1 moveto
45338.1 33855.7 lineto
45300.6 33818.2 lineto
45263.1 33855.7 lineto
45300.6 33893.1 lineto
45300.6 33818.2 lineto
stroke
newpath
45300.6 34305.6 moveto
45338.1 34268.1 lineto
45300.6 34230.6 lineto
45263.1 34268.1 lineto
45300.6 34305.6 lineto
45300.6 34230.6 lineto
stroke
71.6663 setlinewidth
newpath
38170.4 32879.1 moveto
38887.1 32162.5 lineto
stroke
newpath
38887.1 32879.1 moveto
38170.4 32162.5 lineto
stroke
130.302 setlinewidth
78.7404 setlinewidth
0 0 0 setrgbcolor
0 0 0 setrgbcolor
newpath
40313.8 32164.6 moveto
39863.8 32164.6 lineto
stroke
newpath
40088.8 32164.6 moveto
40088.8 32952 lineto
40013.8 32839.5 lineto
39938.8 32764.5 lineto
39863.8 32727 lineto
stroke
newpath
40651.2 32239.6 moveto
40688.7 32202.1 lineto
40651.2 32164.6 lineto
40613.7 32202.1 lineto
40651.2 32239.6 lineto
40651.2 32164.6 lineto
stroke
newpath
41438.6 32164.6 moveto
40988.7 32164.6 lineto
stroke
newpath
41213.6 32164.6 moveto
41213.6 32952 lineto
41138.7 32839.5 lineto
41063.7 32764.5 lineto
40988.7 32727 lineto
stroke
newpath
41926.1 32952 moveto
42001.1 32952 lineto
42076 32914.5 lineto
42113.5 32877 lineto
42151 32802 lineto
42188.5 32652.1 lineto
42188.5 32464.6 lineto
42151 32314.6 lineto
42113.5 32239.6 lineto
42076 32202.1 lineto
42001.1 32164.6 lineto
41926.1 32164.6 lineto
41851.1 32202.1 lineto
41813.6 32239.6 lineto
41776.1 32314.6 lineto
41738.6 32464.6 lineto
41738.6 32652.1 lineto
41776.1 32802 lineto
41813.6 32877 lineto
41851.1 32914.5 lineto
41926.1 32952 lineto
stroke
newpath
42676 32952 moveto
42751 32952 lineto
42825.9 32914.5 lineto
42863.4 32877 lineto
42900.9 32802 lineto
42938.4 32652.1 lineto
42938.4 32464.6 lineto
42900.9 32314.6 lineto
42863.4 32239.6 lineto
42825.9 32202.1 lineto
42751 32164.6 lineto
42676 32164.6 lineto
42601 32202.1 lineto
42563.5 32239.6 lineto
42526 32314.6 lineto
42488.5 32464.6 lineto
42488.5 32652.1 lineto
42526 32802 lineto
42563.5 32877 lineto
42601 32914.5 lineto
42676 32952 lineto
stroke
newpath
43275.9 32164.6 moveto
43275.9 32689.5 lineto
stroke
newpath
43275.9 32614.6 moveto
43313.4 32652.1 lineto
43388.4 32689.5 lineto
43500.9 32689.5 lineto
43575.9 32652.1 lineto
43613.3 32577.1 lineto
43613.3 32164.6 lineto
stroke
newpath
43613.3 32577.1 moveto
43650.8 32652.1 lineto
43725.8 32689.5 lineto
43838.3 32689.5 lineto
43913.3 32652.1 lineto
43950.8 32577.1 lineto
43950.8 32164.6 lineto
stroke
newpath
44325.8 32164.6 moveto
44325.8 32689.5 lineto
stroke
newpath
44325.8 32614.6 moveto
44363.3 32652.1 lineto
44438.2 32689.5 lineto
44550.7 32689.5 lineto
44625.7 32652.1 lineto
44663.2 32577.1 lineto
44663.2 32164.6 lineto
stroke
newpath
44663.2 32577.1 moveto
44700.7 32652.1 lineto
44775.7 32689.5 lineto
44888.2 32689.5 lineto
44963.2 32652.1 lineto
45000.7 32577.1 lineto
45000.7 32164.6 lineto
stroke
newpath
46538 32989.5 moveto
45863.1 31977.1 lineto
stroke
newpath
47550.4 32952 moveto
47625.3 32952 lineto
47700.3 32914.5 lineto
47737.8 32877 lineto
47775.3 32802 lineto
47812.8 32652.1 lineto
47812.8 32464.6 lineto
47775.3 32314.6 lineto
47737.8 32239.6 lineto
47700.3 32202.1 lineto
47625.3 32164.6 lineto
47550.4 32164.6 lineto
47475.4 32202.1 lineto
47437.9 32239.6 lineto
47400.4 32314.6 lineto
47362.9 32464.6 lineto
47362.9 32652.1 lineto
47400.4 32802 lineto
47437.9 32877 lineto
47475.4 32914.5 lineto
47550.4 32952 lineto
stroke
newpath
48150.3 32239.6 moveto
48187.8 32202.1 lineto
48150.3 32164.6 lineto
48112.8 32202.1 lineto
48150.3 32239.6 lineto
48150.3 32164.6 lineto
stroke
newpath
48675.2 32952 moveto
48750.2 32952 lineto
48825.2 32914.5 lineto
48862.7 32877 lineto
48900.2 32802 lineto
48937.7 32652.1 lineto
48937.7 32464.6 lineto
48900.2 32314.6 lineto
48862.7 32239.6 lineto
48825.2 32202.1 lineto
48750.2 32164.6 lineto
48675.2 32164.6 lineto
48600.2 32202.1 lineto
48562.7 32239.6 lineto
48525.2 32314.6 lineto
48487.7 32464.6 lineto
48487.7 32652.1 lineto
48525.2 32802 lineto
48562.7 32877 lineto
48600.2 32914.5 lineto
48675.2 32952 lineto
stroke
newpath
49612.6 32689.5 moveto
49612.6 32164.6 lineto
stroke
newpath
49425.1 32989.5 moveto
49237.6 32427.1 lineto
49725.1 32427.1 lineto
stroke
newpath
49950.1 32952 moveto
50437.5 32952 lineto
50175 32652.1 lineto
50287.5 32652.1 lineto
50362.5 32614.6 lineto
50400 32577.1 lineto
50437.5 32502.1 lineto
50437.5 32314.6 lineto
50400 32239.6 lineto
50362.5 32202.1 lineto
50287.5 32164.6 lineto
50062.5 32164.6 lineto
49987.6 32202.1 lineto
49950.1 32239.6 lineto
stroke
newpath
50700 32952 moveto
51187.4 32952 lineto
50924.9 32652.1 lineto
51037.4 32652.1 lineto
51112.4 32614.6 lineto
51149.9 32577.1 lineto
51187.4 32502.1 lineto
51187.4 32314.6 lineto
51149.9 32239.6 lineto
51112.4 32202.1 lineto
51037.4 32164.6 lineto
50812.5 32164.6 lineto
50737.5 32202.1 lineto
50700 32239.6 lineto
stroke
newpath
51487.4 32952 moveto
51487.4 32802 lineto
stroke
newpath
51787.3 32952 moveto
51787.3 32802 lineto
stroke
newpath
52949.7 31864.7 moveto
52912.2 31902.1 lineto
52837.2 32014.6 lineto
52799.7 32089.6 lineto
52762.2 32202.1 lineto
52724.7 32389.6 lineto
52724.7 32539.6 lineto
52762.2 32727 lineto
52799.7 32839.5 lineto
52837.2 32914.5 lineto
52912.2 33027 lineto
52949.7 33064.5 lineto
stroke
newpath
53662.1 32164.6 moveto
53212.2 32164.6 lineto
stroke
newpath
53437.1 32164.6 moveto
53437.1 32952 lineto
53362.1 32839.5 lineto
53287.1 32764.5 lineto
53212.2 32727 lineto
stroke
newpath
53962.1 32877 moveto
53999.6 32914.5 lineto
54074.5 32952 lineto
54262 32952 lineto
54337 32914.5 lineto
54374.5 32877 lineto
54412 32802 lineto
54412 32727 lineto
54374.5 32614.6 lineto
53924.6 32164.6 lineto
54412 32164.6 lineto
stroke
newpath
55349.4 32164.6 moveto
55349.4 32952 lineto
stroke
newpath
55686.8 32164.6 moveto
55686.8 32577.1 lineto
55649.3 32652.1 lineto
55574.4 32689.5 lineto
55461.9 32689.5 lineto
55386.9 32652.1 lineto
55349.4 32614.6 lineto
stroke
newpath
56174.3 32164.6 moveto
56099.3 32202.1 lineto
56061.8 32239.6 lineto
56024.3 32314.6 lineto
56024.3 32539.6 lineto
56061.8 32614.6 lineto
56099.3 32652.1 lineto
56174.3 32689.5 lineto
56286.8 32689.5 lineto
56361.8 32652.1 lineto
56399.3 32614.6 lineto
56436.7 32539.6 lineto
56436.7 32314.6 lineto
56399.3 32239.6 lineto
56361.8 32202.1 lineto
56286.8 32164.6 lineto
56174.3 32164.6 lineto
stroke
newpath
56886.7 32164.6 moveto
56811.7 32202.1 lineto
56774.2 32277.1 lineto
56774.2 32952 lineto
stroke
newpath
57486.6 32202.1 moveto
57411.6 32164.6 lineto
57261.6 32164.6 lineto
57186.7 32202.1 lineto
57149.2 32277.1 lineto
57149.2 32577.1 lineto
57186.7 32652.1 lineto
57261.6 32689.5 lineto
57411.6 32689.5 lineto
57486.6 32652.1 lineto
57524.1 32577.1 lineto
57524.1 32502.1 lineto
57149.2 32427.1 lineto
stroke
newpath
57824.1 32202.1 moveto
57899.1 32164.6 lineto
58049 32164.6 lineto
58124 32202.1 lineto
58161.5 32277.1 lineto
58161.5 32314.6 lineto
58124 32389.6 lineto
58049 32427.1 lineto
57936.6 32427.1 lineto
57861.6 32464.6 lineto
57824.1 32539.6 lineto
57824.1 32577.1 lineto
57861.6 32652.1 lineto
57936.6 32689.5 lineto
58049 32689.5 lineto
58124 32652.1 lineto
stroke
newpath
58424 31864.7 moveto
58461.5 31902.1 lineto
58536.5 32014.6 lineto
58574 32089.6 lineto
58611.5 32202.1 lineto
58649 32389.6 lineto
58649 32539.6 lineto
58611.5 32727 lineto
58574 32839.5 lineto
58536.5 32914.5 lineto
58461.5 33027 lineto
58424 33064.5 lineto
stroke
77.7775 setlinewidth
38498.2 31331.7 388.888 cir0
130.302 setlinewidth
78.7404 setlinewidth
0 0 0 setrgbcolor
0 0 0 setrgbcolor
newpath
40313.8 30975.5 moveto
39863.8 30975.5 lineto
stroke
newpath
40088.8 30975.5 moveto
40088.8 31762.9 lineto
40013.8 31650.4 lineto
39938.8 31575.4 lineto
39863.8 31537.9 lineto
stroke
newpath
40651.2 31050.5 moveto
40688.7 31013 lineto
40651.2 30975.5 lineto
40613.7 31013 lineto
40651.2 31050.5 lineto
40651.2 30975.5 lineto
stroke
newpath
41438.6 30975.5 moveto
40988.7 30975.5 lineto
stroke
newpath
41213.6 30975.5 moveto
41213.6 31762.9 lineto
41138.7 31650.4 lineto
41063.7 31575.4 lineto
40988.7 31537.9 lineto
stroke
newpath
41813.6 30975.5 moveto
41963.6 30975.5 lineto
42038.5 31013 lineto
42076 31050.5 lineto
42151 31163 lineto
42188.5 31313 lineto
42188.5 31612.9 lineto
42151 31687.9 lineto
42113.5 31725.4 lineto
42038.5 31762.9 lineto
41888.6 31762.9 lineto
41813.6 31725.4 lineto
41776.1 31687.9 lineto
41738.6 31612.9 lineto
41738.6 31425.5 lineto
41776.1 31350.5 lineto
41813.6 31313 lineto
41888.6 31275.5 lineto
42038.5 31275.5 lineto
42113.5 31313 lineto
42151 31350.5 lineto
42188.5 31425.5 lineto
stroke
newpath
42863.4 31500.4 moveto
42863.4 30975.5 lineto
stroke
newpath
42676 31800.4 moveto
42488.5 31238 lineto
42975.9 31238 lineto
stroke
newpath
43275.9 30975.5 moveto
43275.9 31500.4 lineto
stroke
newpath
43275.9 31425.5 moveto
43313.4 31462.9 lineto
43388.4 31500.4 lineto
43500.9 31500.4 lineto
43575.9 31462.9 lineto
43613.3 31388 lineto
43613.3 30975.5 lineto
stroke
newpath
43613.3 31388 moveto
43650.8 31462.9 lineto
43725.8 31500.4 lineto
43838.3 31500.4 lineto
43913.3 31462.9 lineto
43950.8 31388 lineto
43950.8 30975.5 lineto
stroke
newpath
44325.8 30975.5 moveto
44325.8 31500.4 lineto
stroke
newpath
44325.8 31425.5 moveto
44363.3 31462.9 lineto
44438.2 31500.4 lineto
44550.7 31500.4 lineto
44625.7 31462.9 lineto
44663.2 31388 lineto
44663.2 30975.5 lineto
stroke
newpath
44663.2 31388 moveto
44700.7 31462.9 lineto
44775.7 31500.4 lineto
44888.2 31500.4 lineto
44963.2 31462.9 lineto
45000.7 31388 lineto
45000.7 30975.5 lineto
stroke
newpath
46538 31800.4 moveto
45863.1 30788 lineto
stroke
newpath
47550.4 31762.9 moveto
47625.3 31762.9 lineto
47700.3 31725.4 lineto
47737.8 31687.9 lineto
47775.3 31612.9 lineto
47812.8 31462.9 lineto
47812.8 31275.5 lineto
47775.3 31125.5 lineto
47737.8 31050.5 lineto
47700.3 31013 lineto
47625.3 30975.5 lineto
47550.4 30975.5 lineto
47475.4 31013 lineto
47437.9 31050.5 lineto
47400.4 31125.5 lineto
47362.9 31275.5 lineto
47362.9 31462.9 lineto
47400.4 31612.9 lineto
47437.9 31687.9 lineto
47475.4 31725.4 lineto
47550.4 31762.9 lineto
stroke
newpath
48150.3 31050.5 moveto
48187.8 31013 lineto
48150.3 30975.5 lineto
48112.8 31013 lineto
48150.3 31050.5 lineto
48150.3 30975.5 lineto
stroke
newpath
48675.2 31762.9 moveto
48750.2 31762.9 lineto
48825.2 31725.4 lineto
48862.7 31687.9 lineto
48900.2 31612.9 lineto
48937.7 31462.9 lineto
48937.7 31275.5 lineto
48900.2 31125.5 lineto
48862.7 31050.5 lineto
48825.2 31013 lineto
48750.2 30975.5 lineto
48675.2 30975.5 lineto
48600.2 31013 lineto
48562.7 31050.5 lineto
48525.2 31125.5 lineto
48487.7 31275.5 lineto
48487.7 31462.9 lineto
48525.2 31612.9 lineto
48562.7 31687.9 lineto
48600.2 31725.4 lineto
48675.2 31762.9 lineto
stroke
newpath
49612.6 31500.4 moveto
49612.6 30975.5 lineto
stroke
newpath
49425.1 31800.4 moveto
49237.6 31238 lineto
49725.1 31238 lineto
stroke
newpath
49950.1 31762.9 moveto
50475 31762.9 lineto
50137.5 30975.5 lineto
stroke
newpath
50924.9 31762.9 moveto
50999.9 31762.9 lineto
51074.9 31725.4 lineto
51112.4 31687.9 lineto
51149.9 31612.9 lineto
51187.4 31462.9 lineto
51187.4 31275.5 lineto
51149.9 31125.5 lineto
51112.4 31050.5 lineto
51074.9 31013 lineto
50999.9 30975.5 lineto
50924.9 30975.5 lineto
50849.9 31013 lineto
50812.5 31050.5 lineto
50775 31125.5 lineto
50737.5 31275.5 lineto
50737.5 31462.9 lineto
50775 31612.9 lineto
50812.5 31687.9 lineto
50849.9 31725.4 lineto
50924.9 31762.9 lineto
stroke
newpath
51487.4 31762.9 moveto
51487.4 31612.9 lineto
stroke
newpath
51787.3 31762.9 moveto
51787.3 31612.9 lineto
stroke
newpath
52949.7 30675.5 moveto
52912.2 30713 lineto
52837.2 30825.5 lineto
52799.7 30900.5 lineto
52762.2 31013 lineto
52724.7 31200.5 lineto
52724.7 31350.5 lineto
52762.2 31537.9 lineto
52799.7 31650.4 lineto
52837.2 31725.4 lineto
52912.2 31837.9 lineto
52949.7 31875.4 lineto
stroke
newpath
53587.1 31762.9 moveto
53437.1 31762.9 lineto
53362.1 31725.4 lineto
53324.6 31687.9 lineto
53249.6 31575.4 lineto
53212.2 31425.5 lineto
53212.2 31125.5 lineto
53249.6 31050.5 lineto
53287.1 31013 lineto
53362.1 30975.5 lineto
53512.1 30975.5 lineto
53587.1 31013 lineto
53624.6 31050.5 lineto
53662.1 31125.5 lineto
53662.1 31313 lineto
53624.6 31388 lineto
53587.1 31425.5 lineto
53512.1 31462.9 lineto
53362.1 31462.9 lineto
53287.1 31425.5 lineto
53249.6 31388 lineto
53212.2 31313 lineto
stroke
newpath
54599.5 30975.5 moveto
54599.5 31762.9 lineto
stroke
newpath
54936.9 30975.5 moveto
54936.9 31388 lineto
54899.4 31462.9 lineto
54824.5 31500.4 lineto
54712 31500.4 lineto
54637 31462.9 lineto
54599.5 31425.5 lineto
stroke
newpath
55424.4 30975.5 moveto
55349.4 31013 lineto
55311.9 31050.5 lineto
55274.4 31125.5 lineto
55274.4 31350.5 lineto
55311.9 31425.5 lineto
55349.4 31462.9 lineto
55424.4 31500.4 lineto
55536.9 31500.4 lineto
55611.9 31462.9 lineto
55649.3 31425.5 lineto
55686.8 31350.5 lineto
55686.8 31125.5 lineto
55649.3 31050.5 lineto
55611.9 31013 lineto
55536.9 30975.5 lineto
55424.4 30975.5 lineto
stroke
newpath
56136.8 30975.5 moveto
56061.8 31013 lineto
56024.3 31088 lineto
56024.3 31762.9 lineto
stroke
newpath
56736.7 31013 moveto
56661.7 30975.5 lineto
56511.7 30975.5 lineto
56436.7 31013 lineto
56399.3 31088 lineto
56399.3 31388 lineto
56436.7 31462.9 lineto
56511.7 31500.4 lineto
56661.7 31500.4 lineto
56736.7 31462.9 lineto
56774.2 31388 lineto
56774.2 31313 lineto
56399.3 31238 lineto
stroke
newpath
57074.2 31013 moveto
57149.2 30975.5 lineto
57299.1 30975.5 lineto
57374.1 31013 lineto
57411.6 31088 lineto
57411.6 31125.5 lineto
57374.1 31200.5 lineto
57299.1 31238 lineto
57186.7 31238 lineto
57111.7 31275.5 lineto
57074.2 31350.5 lineto
57074.2 31388 lineto
57111.7 31462.9 lineto
57186.7 31500.4 lineto
57299.1 31500.4 lineto
57374.1 31462.9 lineto
stroke
newpath
57674.1 30675.5 moveto
57711.6 30713 lineto
57786.6 30825.5 lineto
57824.1 30900.5 lineto
57861.6 31013 lineto
57899.1 31200.5 lineto
57899.1 31350.5 lineto
57861.6 31537.9 lineto
57824.1 31650.4 lineto
57786.6 31725.4 lineto
57711.6 31837.9 lineto
57674.1 31875.4 lineto
stroke
showpage
grestore
%%EOF
