%!PS-Adobe-3.0
%%Creator: PCBNEW
%%CreationDate: Thu Jan 27 22:31:16 2022
%%Title: ()
%%Pages: 1
%%PageOrder: Ascend
%%BoundingBox: 0 0 596 842
%%DocumentMedia: A4 595 842 0 () ()
%%Orientation: Landscape
%%EndComments
%%BeginProlog
/line { newpath moveto lineto stroke } bind def
/cir0 { newpath 0 360 arc stroke } bind def
/cir1 { newpath 0 360 arc gsave fill grestore stroke } bind def
/cir2 { newpath 0 360 arc gsave fill grestore stroke } bind def
/arc0 { newpath arc stroke } bind def
/arc1 { newpath 4 index 4 index moveto arc closepath gsave fill
    grestore stroke } bind def
/arc2 { newpath 4 index 4 index moveto arc closepath gsave fill
    grestore stroke } bind def
/poly0 { stroke } bind def
/poly1 { closepath gsave fill grestore stroke } bind def
/poly2 { closepath gsave fill grestore stroke } bind def
/rect0 { rectstroke } bind def
/rect1 { rectfill } bind def
/rect2 { rectfill } bind def
/linemode0 { 0 setlinecap 0 setlinejoin 0 setlinewidth } bind def
/linemode1 { 1 setlinecap 1 setlinejoin } bind def
/dashedline { [200] 100 setdash } bind def
/solidline { [] 0 setdash } bind def
/phantomshow { moveto
    /KicadFont findfont 0.000001 scalefont setfont
    show } bind def
/textshow { gsave
    findfont exch scalefont setfont concat 1 scale 0 0 moveto show
    } bind def
/reencodefont {
  findfont dup length dict begin
  { 1 index /FID ne
    { def }
    { pop pop } ifelse
  } forall
  /Encoding ISOLatin1Encoding def
  currentdict
  end } bind def
/KicadFont /Helvetica reencodefont definefont pop
/KicadFont-Bold /Helvetica-Bold reencodefont definefont pop
/KicadFont-Oblique /Helvetica-Oblique reencodefont definefont pop
/KicadFont-BoldOblique /Helvetica-BoldOblique reencodefont definefont pop
%%EndProlog
%%Page: 1 1
%%BeginPageSetup
gsave
0.0072 0.0072 scale
linemode1
82680 0 translate 90 rotate
130.302 setlinewidth
%%EndPageSetup
0 0 0 setrgbcolor
65.1512 setlinewidth
newpath
78010.4 35724.6 moveto
78010.4 80027.4 lineto
stroke
0 0 0 setrgbcolor
newpath
39571.2 35073.1 moveto
77358.8 35073.1 lineto
stroke
0 0 0 setrgbcolor
newpath
38919.6 80027.4 moveto
38919.6 35724.6 lineto
stroke
0 0 0 setrgbcolor
newpath
77358.8 80678.9 moveto
39571.2 80678.9 lineto
stroke
0 0 0 setrgbcolor
77358.8 80027.4 651.512 -0 90 arc0
0 0 0 setrgbcolor
77358.8 35724.6 651.512 -90 -0 arc0
0 0 0 setrgbcolor
39571.2 35724.6 651.512 -180 -90 arc0
0 0 0 setrgbcolor
39571.2 80027.4 651.512 90 180 arc0
130.302 setlinewidth
195.454 setlinewidth
newpath
48627.2 72494.3 moveto
50581.7 70539.8 lineto
stroke
newpath
50581.7 72494.3 moveto
48627.2 70539.8 lineto
stroke
newpath
48887.8 45367 moveto
50842.3 43412.4 lineto
stroke
newpath
50842.3 45367 moveto
48887.8 43412.4 lineto
stroke
newpath
65240.7 72494.3 moveto
67195.3 70539.8 lineto
stroke
newpath
67195.3 72494.3 moveto
65240.7 70539.8 lineto
stroke
newpath
65501.3 45367 moveto
67455.9 43412.4 lineto
stroke
newpath
67455.9 45367 moveto
65501.3 43412.4 lineto
stroke
208.484 setlinewidth
41525.7 78072.9 1042.42 cir0
41525.7 37679.1 1042.42 cir0
75404.3 78072.9 1042.42 cir0
75404.3 37679.1 1042.42 cir0
130.302 setlinewidth
78.7404 setlinewidth
0 0 0 setrgbcolor
0 0 0 setrgbcolor
newpath
39901.3 33818.2 moveto
39901.3 34605.6 lineto
40088.8 34605.6 lineto
40201.3 34568.1 lineto
40276.3 34493.1 lineto
40313.8 34418.1 lineto
40351.3 34268.1 lineto
40351.3 34155.6 lineto
40313.8 34005.6 lineto
40276.3 33930.6 lineto
40201.3 33855.7 lineto
40088.8 33818.2 lineto
39901.3 33818.2 lineto
stroke
newpath
40688.7 33818.2 moveto
40688.7 34343.1 lineto
stroke
newpath
40688.7 34193.1 moveto
40726.2 34268.1 lineto
40763.7 34305.6 lineto
40838.7 34343.1 lineto
40913.7 34343.1 lineto
stroke
newpath
41176.2 33818.2 moveto
41176.2 34343.1 lineto
stroke
newpath
41176.2 34605.6 moveto
41138.7 34568.1 lineto
41176.2 34530.6 lineto
41213.6 34568.1 lineto
41176.2 34605.6 lineto
41176.2 34530.6 lineto
stroke
newpath
41663.6 33818.2 moveto
41588.6 33855.7 lineto
41551.1 33930.6 lineto
41551.1 34605.6 lineto
stroke
newpath
42076 33818.2 moveto
42001.1 33855.7 lineto
41963.6 33930.6 lineto
41963.6 34605.6 lineto
stroke
newpath
42975.9 33818.2 moveto
42975.9 34605.6 lineto
43238.4 34043.1 lineto
43500.9 34605.6 lineto
43500.9 33818.2 lineto
stroke
newpath
44213.3 33818.2 moveto
44213.3 34230.6 lineto
44175.8 34305.6 lineto
44100.8 34343.1 lineto
43950.8 34343.1 lineto
43875.8 34305.6 lineto
stroke
newpath
44213.3 33855.7 moveto
44138.3 33818.2 lineto
43950.8 33818.2 lineto
43875.8 33855.7 lineto
43838.3 33930.6 lineto
43838.3 34005.6 lineto
43875.8 34080.6 lineto
43950.8 34118.1 lineto
44138.3 34118.1 lineto
44213.3 34155.6 lineto
stroke
newpath
44588.2 34343.1 moveto
44588.2 33555.7 lineto
stroke
newpath
44588.2 34305.6 moveto
44663.2 34343.1 lineto
44813.2 34343.1 lineto
44888.2 34305.6 lineto
44925.7 34268.1 lineto
44963.2 34193.1 lineto
44963.2 33968.1 lineto
44925.7 33893.1 lineto
44888.2 33855.7 lineto
44813.2 33818.2 lineto
44663.2 33818.2 lineto
44588.2 33855.7 lineto
stroke
newpath
45300.6 33893.1 moveto
45338.1 33855.7 lineto
45300.6 33818.2 lineto
45263.1 33855.7 lineto
45300.6 33893.1 lineto
45300.6 33818.2 lineto
stroke
newpath
45300.6 34305.6 moveto
45338.1 34268.1 lineto
45300.6 34230.6 lineto
45263.1 34268.1 lineto
45300.6 34305.6 lineto
45300.6 34230.6 lineto
stroke
78.7398 setlinewidth
newpath
38099.7 32914.5 moveto
38887.1 32127.1 lineto
stroke
newpath
38887.1 32914.5 moveto
38099.7 32127.1 lineto
stroke
130.302 setlinewidth
78.7404 setlinewidth
0 0 0 setrgbcolor
0 0 0 setrgbcolor
newpath
39826.3 32952 moveto
40313.8 32952 lineto
40051.3 32652.1 lineto
40163.8 32652.1 lineto
40238.8 32614.6 lineto
40276.3 32577.1 lineto
40313.8 32502.1 lineto
40313.8 32314.6 lineto
40276.3 32239.6 lineto
40238.8 32202.1 lineto
40163.8 32164.6 lineto
39938.8 32164.6 lineto
39863.8 32202.1 lineto
39826.3 32239.6 lineto
stroke
newpath
40651.2 32239.6 moveto
40688.7 32202.1 lineto
40651.2 32164.6 lineto
40613.7 32202.1 lineto
40651.2 32239.6 lineto
40651.2 32164.6 lineto
stroke
newpath
41176.2 32952 moveto
41251.1 32952 lineto
41326.1 32914.5 lineto
41363.6 32877 lineto
41401.1 32802 lineto
41438.6 32652.1 lineto
41438.6 32464.6 lineto
41401.1 32314.6 lineto
41363.6 32239.6 lineto
41326.1 32202.1 lineto
41251.1 32164.6 lineto
41176.2 32164.6 lineto
41101.2 32202.1 lineto
41063.7 32239.6 lineto
41026.2 32314.6 lineto
40988.7 32464.6 lineto
40988.7 32652.1 lineto
41026.2 32802 lineto
41063.7 32877 lineto
41101.2 32914.5 lineto
41176.2 32952 lineto
stroke
newpath
41926.1 32952 moveto
42001.1 32952 lineto
42076 32914.5 lineto
42113.5 32877 lineto
42151 32802 lineto
42188.5 32652.1 lineto
42188.5 32464.6 lineto
42151 32314.6 lineto
42113.5 32239.6 lineto
42076 32202.1 lineto
42001.1 32164.6 lineto
41926.1 32164.6 lineto
41851.1 32202.1 lineto
41813.6 32239.6 lineto
41776.1 32314.6 lineto
41738.6 32464.6 lineto
41738.6 32652.1 lineto
41776.1 32802 lineto
41813.6 32877 lineto
41851.1 32914.5 lineto
41926.1 32952 lineto
stroke
newpath
42676 32952 moveto
42751 32952 lineto
42825.9 32914.5 lineto
42863.4 32877 lineto
42900.9 32802 lineto
42938.4 32652.1 lineto
42938.4 32464.6 lineto
42900.9 32314.6 lineto
42863.4 32239.6 lineto
42825.9 32202.1 lineto
42751 32164.6 lineto
42676 32164.6 lineto
42601 32202.1 lineto
42563.5 32239.6 lineto
42526 32314.6 lineto
42488.5 32464.6 lineto
42488.5 32652.1 lineto
42526 32802 lineto
42563.5 32877 lineto
42601 32914.5 lineto
42676 32952 lineto
stroke
newpath
43275.9 32164.6 moveto
43275.9 32689.5 lineto
stroke
newpath
43275.9 32614.6 moveto
43313.4 32652.1 lineto
43388.4 32689.5 lineto
43500.9 32689.5 lineto
43575.9 32652.1 lineto
43613.3 32577.1 lineto
43613.3 32164.6 lineto
stroke
newpath
43613.3 32577.1 moveto
43650.8 32652.1 lineto
43725.8 32689.5 lineto
43838.3 32689.5 lineto
43913.3 32652.1 lineto
43950.8 32577.1 lineto
43950.8 32164.6 lineto
stroke
newpath
44325.8 32164.6 moveto
44325.8 32689.5 lineto
stroke
newpath
44325.8 32614.6 moveto
44363.3 32652.1 lineto
44438.2 32689.5 lineto
44550.7 32689.5 lineto
44625.7 32652.1 lineto
44663.2 32577.1 lineto
44663.2 32164.6 lineto
stroke
newpath
44663.2 32577.1 moveto
44700.7 32652.1 lineto
44775.7 32689.5 lineto
44888.2 32689.5 lineto
44963.2 32652.1 lineto
45000.7 32577.1 lineto
45000.7 32164.6 lineto
stroke
newpath
46538 32989.5 moveto
45863.1 31977.1 lineto
stroke
newpath
47550.4 32952 moveto
47625.3 32952 lineto
47700.3 32914.5 lineto
47737.8 32877 lineto
47775.3 32802 lineto
47812.8 32652.1 lineto
47812.8 32464.6 lineto
47775.3 32314.6 lineto
47737.8 32239.6 lineto
47700.3 32202.1 lineto
47625.3 32164.6 lineto
47550.4 32164.6 lineto
47475.4 32202.1 lineto
47437.9 32239.6 lineto
47400.4 32314.6 lineto
47362.9 32464.6 lineto
47362.9 32652.1 lineto
47400.4 32802 lineto
47437.9 32877 lineto
47475.4 32914.5 lineto
47550.4 32952 lineto
stroke
newpath
48150.3 32239.6 moveto
48187.8 32202.1 lineto
48150.3 32164.6 lineto
48112.8 32202.1 lineto
48150.3 32239.6 lineto
48150.3 32164.6 lineto
stroke
newpath
48937.7 32164.6 moveto
48487.7 32164.6 lineto
stroke
newpath
48712.7 32164.6 moveto
48712.7 32952 lineto
48637.7 32839.5 lineto
48562.7 32764.5 lineto
48487.7 32727 lineto
stroke
newpath
49687.6 32164.6 moveto
49237.6 32164.6 lineto
stroke
newpath
49462.6 32164.6 moveto
49462.6 32952 lineto
49387.6 32839.5 lineto
49312.6 32764.5 lineto
49237.6 32727 lineto
stroke
newpath
50137.5 32614.6 moveto
50062.5 32652.1 lineto
50025 32689.5 lineto
49987.6 32764.5 lineto
49987.6 32802 lineto
50025 32877 lineto
50062.5 32914.5 lineto
50137.5 32952 lineto
50287.5 32952 lineto
50362.5 32914.5 lineto
50400 32877 lineto
50437.5 32802 lineto
50437.5 32764.5 lineto
50400 32689.5 lineto
50362.5 32652.1 lineto
50287.5 32614.6 lineto
50137.5 32614.6 lineto
50062.5 32577.1 lineto
50025 32539.6 lineto
49987.6 32464.6 lineto
49987.6 32314.6 lineto
50025 32239.6 lineto
50062.5 32202.1 lineto
50137.5 32164.6 lineto
50287.5 32164.6 lineto
50362.5 32202.1 lineto
50400 32239.6 lineto
50437.5 32314.6 lineto
50437.5 32464.6 lineto
50400 32539.6 lineto
50362.5 32577.1 lineto
50287.5 32614.6 lineto
stroke
newpath
51187.4 32164.6 moveto
50737.5 32164.6 lineto
stroke
newpath
50962.4 32164.6 moveto
50962.4 32952 lineto
50887.4 32839.5 lineto
50812.5 32764.5 lineto
50737.5 32727 lineto
stroke
newpath
51487.4 32952 moveto
51487.4 32802 lineto
stroke
newpath
51787.3 32952 moveto
51787.3 32802 lineto
stroke
newpath
52949.7 31864.7 moveto
52912.2 31902.1 lineto
52837.2 32014.6 lineto
52799.7 32089.6 lineto
52762.2 32202.1 lineto
52724.7 32389.6 lineto
52724.7 32539.6 lineto
52762.2 32727 lineto
52799.7 32839.5 lineto
52837.2 32914.5 lineto
52912.2 33027 lineto
52949.7 33064.5 lineto
stroke
newpath
53587.1 32689.5 moveto
53587.1 32164.6 lineto
stroke
newpath
53399.6 32989.5 moveto
53212.2 32427.1 lineto
53699.6 32427.1 lineto
stroke
newpath
54599.5 32164.6 moveto
54599.5 32952 lineto
stroke
newpath
54936.9 32164.6 moveto
54936.9 32577.1 lineto
54899.4 32652.1 lineto
54824.5 32689.5 lineto
54712 32689.5 lineto
54637 32652.1 lineto
54599.5 32614.6 lineto
stroke
newpath
55424.4 32164.6 moveto
55349.4 32202.1 lineto
55311.9 32239.6 lineto
55274.4 32314.6 lineto
55274.4 32539.6 lineto
55311.9 32614.6 lineto
55349.4 32652.1 lineto
55424.4 32689.5 lineto
55536.9 32689.5 lineto
55611.9 32652.1 lineto
55649.3 32614.6 lineto
55686.8 32539.6 lineto
55686.8 32314.6 lineto
55649.3 32239.6 lineto
55611.9 32202.1 lineto
55536.9 32164.6 lineto
55424.4 32164.6 lineto
stroke
newpath
56136.8 32164.6 moveto
56061.8 32202.1 lineto
56024.3 32277.1 lineto
56024.3 32952 lineto
stroke
newpath
56736.7 32202.1 moveto
56661.7 32164.6 lineto
56511.7 32164.6 lineto
56436.7 32202.1 lineto
56399.3 32277.1 lineto
56399.3 32577.1 lineto
56436.7 32652.1 lineto
56511.7 32689.5 lineto
56661.7 32689.5 lineto
56736.7 32652.1 lineto
56774.2 32577.1 lineto
56774.2 32502.1 lineto
56399.3 32427.1 lineto
stroke
newpath
57074.2 32202.1 moveto
57149.2 32164.6 lineto
57299.1 32164.6 lineto
57374.1 32202.1 lineto
57411.6 32277.1 lineto
57411.6 32314.6 lineto
57374.1 32389.6 lineto
57299.1 32427.1 lineto
57186.7 32427.1 lineto
57111.7 32464.6 lineto
57074.2 32539.6 lineto
57074.2 32577.1 lineto
57111.7 32652.1 lineto
57186.7 32689.5 lineto
57299.1 32689.5 lineto
57374.1 32652.1 lineto
stroke
newpath
57674.1 31864.7 moveto
57711.6 31902.1 lineto
57786.6 32014.6 lineto
57824.1 32089.6 lineto
57861.6 32202.1 lineto
57899.1 32389.6 lineto
57899.1 32539.6 lineto
57861.6 32727 lineto
57824.1 32839.5 lineto
57786.6 32914.5 lineto
57711.6 33027 lineto
57674.1 33064.5 lineto
stroke
newpath
59098.9 31864.7 moveto
59061.4 31902.1 lineto
58986.4 32014.6 lineto
58948.9 32089.6 lineto
58911.4 32202.1 lineto
58873.9 32389.6 lineto
58873.9 32539.6 lineto
58911.4 32727 lineto
58948.9 32839.5 lineto
58986.4 32914.5 lineto
59061.4 33027 lineto
59098.9 33064.5 lineto
stroke
newpath
59398.9 32689.5 moveto
59398.9 32164.6 lineto
stroke
newpath
59398.9 32614.6 moveto
59436.4 32652.1 lineto
59511.4 32689.5 lineto
59623.9 32689.5 lineto
59698.8 32652.1 lineto
59736.3 32577.1 lineto
59736.3 32164.6 lineto
stroke
newpath
60223.8 32164.6 moveto
60148.8 32202.1 lineto
60111.3 32239.6 lineto
60073.8 32314.6 lineto
60073.8 32539.6 lineto
60111.3 32614.6 lineto
60148.8 32652.1 lineto
60223.8 32689.5 lineto
60336.3 32689.5 lineto
60411.3 32652.1 lineto
60448.7 32614.6 lineto
60486.2 32539.6 lineto
60486.2 32314.6 lineto
60448.7 32239.6 lineto
60411.3 32202.1 lineto
60336.3 32164.6 lineto
60223.8 32164.6 lineto
stroke
newpath
60711.2 32689.5 moveto
61011.2 32689.5 lineto
stroke
newpath
60823.7 32952 moveto
60823.7 32277.1 lineto
60861.2 32202.1 lineto
60936.2 32164.6 lineto
61011.2 32164.6 lineto
stroke
newpath
61873.6 32689.5 moveto
61873.6 31902.1 lineto
stroke
newpath
61873.6 32652.1 moveto
61948.6 32689.5 lineto
62098.5 32689.5 lineto
62173.5 32652.1 lineto
62211 32614.6 lineto
62248.5 32539.6 lineto
62248.5 32314.6 lineto
62211 32239.6 lineto
62173.5 32202.1 lineto
62098.5 32164.6 lineto
61948.6 32164.6 lineto
61873.6 32202.1 lineto
stroke
newpath
62698.5 32164.6 moveto
62623.5 32202.1 lineto
62586 32277.1 lineto
62586 32952 lineto
stroke
newpath
63335.9 32164.6 moveto
63335.9 32577.1 lineto
63298.4 32652.1 lineto
63223.4 32689.5 lineto
63073.4 32689.5 lineto
62998.4 32652.1 lineto
stroke
newpath
63335.9 32202.1 moveto
63260.9 32164.6 lineto
63073.4 32164.6 lineto
62998.4 32202.1 lineto
62960.9 32277.1 lineto
62960.9 32352.1 lineto
62998.4 32427.1 lineto
63073.4 32464.6 lineto
63260.9 32464.6 lineto
63335.9 32502.1 lineto
stroke
newpath
63598.4 32689.5 moveto
63898.3 32689.5 lineto
stroke
newpath
63710.8 32952 moveto
63710.8 32277.1 lineto
63748.3 32202.1 lineto
63823.3 32164.6 lineto
63898.3 32164.6 lineto
stroke
newpath
64460.7 32202.1 moveto
64385.8 32164.6 lineto
64235.8 32164.6 lineto
64160.8 32202.1 lineto
64123.3 32277.1 lineto
64123.3 32577.1 lineto
64160.8 32652.1 lineto
64235.8 32689.5 lineto
64385.8 32689.5 lineto
64460.7 32652.1 lineto
64498.2 32577.1 lineto
64498.2 32502.1 lineto
64123.3 32427.1 lineto
stroke
newpath
65173.2 32164.6 moveto
65173.2 32952 lineto
stroke
newpath
65173.2 32202.1 moveto
65098.2 32164.6 lineto
64948.2 32164.6 lineto
64873.2 32202.1 lineto
64835.7 32239.6 lineto
64798.2 32314.6 lineto
64798.2 32539.6 lineto
64835.7 32614.6 lineto
64873.2 32652.1 lineto
64948.2 32689.5 lineto
65098.2 32689.5 lineto
65173.2 32652.1 lineto
stroke
newpath
65473.1 31864.7 moveto
65510.6 31902.1 lineto
65585.6 32014.6 lineto
65623.1 32089.6 lineto
65660.6 32202.1 lineto
65698.1 32389.6 lineto
65698.1 32539.6 lineto
65660.6 32727 lineto
65623.1 32839.5 lineto
65585.6 32914.5 lineto
65510.6 33027 lineto
65473.1 33064.5 lineto
stroke
78.7398 setlinewidth
38493.4 31261 393.701 cir0
130.302 setlinewidth
78.7404 setlinewidth
0 0 0 setrgbcolor
0 0 0 setrgbcolor
newpath
39826.3 31692.2 moveto
40313.8 31692.2 lineto
40051.3 31392.2 lineto
40163.8 31392.2 lineto
40238.8 31354.7 lineto
40276.3 31317.2 lineto
40313.8 31242.2 lineto
40313.8 31054.8 lineto
40276.3 30979.8 lineto
40238.8 30942.3 lineto
40163.8 30904.8 lineto
39938.8 30904.8 lineto
39863.8 30942.3 lineto
39826.3 30979.8 lineto
stroke
newpath
40651.2 30979.8 moveto
40688.7 30942.3 lineto
40651.2 30904.8 lineto
40613.7 30942.3 lineto
40651.2 30979.8 lineto
40651.2 30904.8 lineto
stroke
newpath
40988.7 31617.2 moveto
41026.2 31654.7 lineto
41101.2 31692.2 lineto
41288.6 31692.2 lineto
41363.6 31654.7 lineto
41401.1 31617.2 lineto
41438.6 31542.2 lineto
41438.6 31467.2 lineto
41401.1 31354.7 lineto
40951.2 30904.8 lineto
41438.6 30904.8 lineto
stroke
newpath
41926.1 31692.2 moveto
42001.1 31692.2 lineto
42076 31654.7 lineto
42113.5 31617.2 lineto
42151 31542.2 lineto
42188.5 31392.2 lineto
42188.5 31204.7 lineto
42151 31054.8 lineto
42113.5 30979.8 lineto
42076 30942.3 lineto
42001.1 30904.8 lineto
41926.1 30904.8 lineto
41851.1 30942.3 lineto
41813.6 30979.8 lineto
41776.1 31054.8 lineto
41738.6 31204.7 lineto
41738.6 31392.2 lineto
41776.1 31542.2 lineto
41813.6 31617.2 lineto
41851.1 31654.7 lineto
41926.1 31692.2 lineto
stroke
newpath
42676 31692.2 moveto
42751 31692.2 lineto
42825.9 31654.7 lineto
42863.4 31617.2 lineto
42900.9 31542.2 lineto
42938.4 31392.2 lineto
42938.4 31204.7 lineto
42900.9 31054.8 lineto
42863.4 30979.8 lineto
42825.9 30942.3 lineto
42751 30904.8 lineto
42676 30904.8 lineto
42601 30942.3 lineto
42563.5 30979.8 lineto
42526 31054.8 lineto
42488.5 31204.7 lineto
42488.5 31392.2 lineto
42526 31542.2 lineto
42563.5 31617.2 lineto
42601 31654.7 lineto
42676 31692.2 lineto
stroke
newpath
43275.9 30904.8 moveto
43275.9 31429.7 lineto
stroke
newpath
43275.9 31354.7 moveto
43313.4 31392.2 lineto
43388.4 31429.7 lineto
43500.9 31429.7 lineto
43575.9 31392.2 lineto
43613.3 31317.2 lineto
43613.3 30904.8 lineto
stroke
newpath
43613.3 31317.2 moveto
43650.8 31392.2 lineto
43725.8 31429.7 lineto
43838.3 31429.7 lineto
43913.3 31392.2 lineto
43950.8 31317.2 lineto
43950.8 30904.8 lineto
stroke
newpath
44325.8 30904.8 moveto
44325.8 31429.7 lineto
stroke
newpath
44325.8 31354.7 moveto
44363.3 31392.2 lineto
44438.2 31429.7 lineto
44550.7 31429.7 lineto
44625.7 31392.2 lineto
44663.2 31317.2 lineto
44663.2 30904.8 lineto
stroke
newpath
44663.2 31317.2 moveto
44700.7 31392.2 lineto
44775.7 31429.7 lineto
44888.2 31429.7 lineto
44963.2 31392.2 lineto
45000.7 31317.2 lineto
45000.7 30904.8 lineto
stroke
newpath
46538 31729.7 moveto
45863.1 30717.3 lineto
stroke
newpath
47550.4 31692.2 moveto
47625.3 31692.2 lineto
47700.3 31654.7 lineto
47737.8 31617.2 lineto
47775.3 31542.2 lineto
47812.8 31392.2 lineto
47812.8 31204.7 lineto
47775.3 31054.8 lineto
47737.8 30979.8 lineto
47700.3 30942.3 lineto
47625.3 30904.8 lineto
47550.4 30904.8 lineto
47475.4 30942.3 lineto
47437.9 30979.8 lineto
47400.4 31054.8 lineto
47362.9 31204.7 lineto
47362.9 31392.2 lineto
47400.4 31542.2 lineto
47437.9 31617.2 lineto
47475.4 31654.7 lineto
47550.4 31692.2 lineto
stroke
newpath
48150.3 30979.8 moveto
48187.8 30942.3 lineto
48150.3 30904.8 lineto
48112.8 30942.3 lineto
48150.3 30979.8 lineto
48150.3 30904.8 lineto
stroke
newpath
48937.7 30904.8 moveto
48487.7 30904.8 lineto
stroke
newpath
48712.7 30904.8 moveto
48712.7 31692.2 lineto
48637.7 31579.7 lineto
48562.7 31504.7 lineto
48487.7 31467.2 lineto
stroke
newpath
49237.6 31617.2 moveto
49275.1 31654.7 lineto
49350.1 31692.2 lineto
49537.6 31692.2 lineto
49612.6 31654.7 lineto
49650.1 31617.2 lineto
49687.6 31542.2 lineto
49687.6 31467.2 lineto
49650.1 31354.7 lineto
49200.2 30904.8 lineto
49687.6 30904.8 lineto
stroke
newpath
50362.5 31692.2 moveto
50212.5 31692.2 lineto
50137.5 31654.7 lineto
50100 31617.2 lineto
50025 31504.7 lineto
49987.6 31354.7 lineto
49987.6 31054.8 lineto
50025 30979.8 lineto
50062.5 30942.3 lineto
50137.5 30904.8 lineto
50287.5 30904.8 lineto
50362.5 30942.3 lineto
50400 30979.8 lineto
50437.5 31054.8 lineto
50437.5 31242.2 lineto
50400 31317.2 lineto
50362.5 31354.7 lineto
50287.5 31392.2 lineto
50137.5 31392.2 lineto
50062.5 31354.7 lineto
50025 31317.2 lineto
49987.6 31242.2 lineto
stroke
newpath
50924.9 31692.2 moveto
50999.9 31692.2 lineto
51074.9 31654.7 lineto
51112.4 31617.2 lineto
51149.9 31542.2 lineto
51187.4 31392.2 lineto
51187.4 31204.7 lineto
51149.9 31054.8 lineto
51112.4 30979.8 lineto
51074.9 30942.3 lineto
50999.9 30904.8 lineto
50924.9 30904.8 lineto
50849.9 30942.3 lineto
50812.5 30979.8 lineto
50775 31054.8 lineto
50737.5 31204.7 lineto
50737.5 31392.2 lineto
50775 31542.2 lineto
50812.5 31617.2 lineto
50849.9 31654.7 lineto
50924.9 31692.2 lineto
stroke
newpath
51487.4 31692.2 moveto
51487.4 31542.2 lineto
stroke
newpath
51787.3 31692.2 moveto
51787.3 31542.2 lineto
stroke
newpath
52949.7 30604.8 moveto
52912.2 30642.3 lineto
52837.2 30754.8 lineto
52799.7 30829.8 lineto
52762.2 30942.3 lineto
52724.7 31129.7 lineto
52724.7 31279.7 lineto
52762.2 31467.2 lineto
52799.7 31579.7 lineto
52837.2 31654.7 lineto
52912.2 31767.2 lineto
52949.7 31804.7 lineto
stroke
newpath
53587.1 31429.7 moveto
53587.1 30904.8 lineto
stroke
newpath
53399.6 31729.7 moveto
53212.2 31167.2 lineto
53699.6 31167.2 lineto
stroke
newpath
54599.5 30904.8 moveto
54599.5 31692.2 lineto
stroke
newpath
54936.9 30904.8 moveto
54936.9 31317.2 lineto
54899.4 31392.2 lineto
54824.5 31429.7 lineto
54712 31429.7 lineto
54637 31392.2 lineto
54599.5 31354.7 lineto
stroke
newpath
55424.4 30904.8 moveto
55349.4 30942.3 lineto
55311.9 30979.8 lineto
55274.4 31054.8 lineto
55274.4 31279.7 lineto
55311.9 31354.7 lineto
55349.4 31392.2 lineto
55424.4 31429.7 lineto
55536.9 31429.7 lineto
55611.9 31392.2 lineto
55649.3 31354.7 lineto
55686.8 31279.7 lineto
55686.8 31054.8 lineto
55649.3 30979.8 lineto
55611.9 30942.3 lineto
55536.9 30904.8 lineto
55424.4 30904.8 lineto
stroke
newpath
56136.8 30904.8 moveto
56061.8 30942.3 lineto
56024.3 31017.3 lineto
56024.3 31692.2 lineto
stroke
newpath
56736.7 30942.3 moveto
56661.7 30904.8 lineto
56511.7 30904.8 lineto
56436.7 30942.3 lineto
56399.3 31017.3 lineto
56399.3 31317.2 lineto
56436.7 31392.2 lineto
56511.7 31429.7 lineto
56661.7 31429.7 lineto
56736.7 31392.2 lineto
56774.2 31317.2 lineto
56774.2 31242.2 lineto
56399.3 31167.2 lineto
stroke
newpath
57074.2 30942.3 moveto
57149.2 30904.8 lineto
57299.1 30904.8 lineto
57374.1 30942.3 lineto
57411.6 31017.3 lineto
57411.6 31054.8 lineto
57374.1 31129.7 lineto
57299.1 31167.2 lineto
57186.7 31167.2 lineto
57111.7 31204.7 lineto
57074.2 31279.7 lineto
57074.2 31317.2 lineto
57111.7 31392.2 lineto
57186.7 31429.7 lineto
57299.1 31429.7 lineto
57374.1 31392.2 lineto
stroke
newpath
57674.1 30604.8 moveto
57711.6 30642.3 lineto
57786.6 30754.8 lineto
57824.1 30829.8 lineto
57861.6 30942.3 lineto
57899.1 31129.7 lineto
57899.1 31279.7 lineto
57861.6 31467.2 lineto
57824.1 31579.7 lineto
57786.6 31654.7 lineto
57711.6 31767.2 lineto
57674.1 31804.7 lineto
stroke
newpath
59098.9 30604.8 moveto
59061.4 30642.3 lineto
58986.4 30754.8 lineto
58948.9 30829.8 lineto
58911.4 30942.3 lineto
58873.9 31129.7 lineto
58873.9 31279.7 lineto
58911.4 31467.2 lineto
58948.9 31579.7 lineto
58986.4 31654.7 lineto
59061.4 31767.2 lineto
59098.9 31804.7 lineto
stroke
newpath
59398.9 31429.7 moveto
59398.9 30904.8 lineto
stroke
newpath
59398.9 31354.7 moveto
59436.4 31392.2 lineto
59511.4 31429.7 lineto
59623.9 31429.7 lineto
59698.8 31392.2 lineto
59736.3 31317.2 lineto
59736.3 30904.8 lineto
stroke
newpath
60223.8 30904.8 moveto
60148.8 30942.3 lineto
60111.3 30979.8 lineto
60073.8 31054.8 lineto
60073.8 31279.7 lineto
60111.3 31354.7 lineto
60148.8 31392.2 lineto
60223.8 31429.7 lineto
60336.3 31429.7 lineto
60411.3 31392.2 lineto
60448.7 31354.7 lineto
60486.2 31279.7 lineto
60486.2 31054.8 lineto
60448.7 30979.8 lineto
60411.3 30942.3 lineto
60336.3 30904.8 lineto
60223.8 30904.8 lineto
stroke
newpath
60711.2 31429.7 moveto
61011.2 31429.7 lineto
stroke
newpath
60823.7 31692.2 moveto
60823.7 31017.3 lineto
60861.2 30942.3 lineto
60936.2 30904.8 lineto
61011.2 30904.8 lineto
stroke
newpath
61873.6 31429.7 moveto
61873.6 30642.3 lineto
stroke
newpath
61873.6 31392.2 moveto
61948.6 31429.7 lineto
62098.5 31429.7 lineto
62173.5 31392.2 lineto
62211 31354.7 lineto
62248.5 31279.7 lineto
62248.5 31054.8 lineto
62211 30979.8 lineto
62173.5 30942.3 lineto
62098.5 30904.8 lineto
61948.6 30904.8 lineto
61873.6 30942.3 lineto
stroke
newpath
62698.5 30904.8 moveto
62623.5 30942.3 lineto
62586 31017.3 lineto
62586 31692.2 lineto
stroke
newpath
63335.9 30904.8 moveto
63335.9 31317.2 lineto
63298.4 31392.2 lineto
63223.4 31429.7 lineto
63073.4 31429.7 lineto
62998.4 31392.2 lineto
stroke
newpath
63335.9 30942.3 moveto
63260.9 30904.8 lineto
63073.4 30904.8 lineto
62998.4 30942.3 lineto
62960.9 31017.3 lineto
62960.9 31092.2 lineto
62998.4 31167.2 lineto
63073.4 31204.7 lineto
63260.9 31204.7 lineto
63335.9 31242.2 lineto
stroke
newpath
63598.4 31429.7 moveto
63898.3 31429.7 lineto
stroke
newpath
63710.8 31692.2 moveto
63710.8 31017.3 lineto
63748.3 30942.3 lineto
63823.3 30904.8 lineto
63898.3 30904.8 lineto
stroke
newpath
64460.7 30942.3 moveto
64385.8 30904.8 lineto
64235.8 30904.8 lineto
64160.8 30942.3 lineto
64123.3 31017.3 lineto
64123.3 31317.2 lineto
64160.8 31392.2 lineto
64235.8 31429.7 lineto
64385.8 31429.7 lineto
64460.7 31392.2 lineto
64498.2 31317.2 lineto
64498.2 31242.2 lineto
64123.3 31167.2 lineto
stroke
newpath
65173.2 30904.8 moveto
65173.2 31692.2 lineto
stroke
newpath
65173.2 30942.3 moveto
65098.2 30904.8 lineto
64948.2 30904.8 lineto
64873.2 30942.3 lineto
64835.7 30979.8 lineto
64798.2 31054.8 lineto
64798.2 31279.7 lineto
64835.7 31354.7 lineto
64873.2 31392.2 lineto
64948.2 31429.7 lineto
65098.2 31429.7 lineto
65173.2 31392.2 lineto
stroke
newpath
65473.1 30604.8 moveto
65510.6 30642.3 lineto
65585.6 30754.8 lineto
65623.1 30829.8 lineto
65660.6 30942.3 lineto
65698.1 31129.7 lineto
65698.1 31279.7 lineto
65660.6 31467.2 lineto
65623.1 31579.7 lineto
65585.6 31654.7 lineto
65510.6 31767.2 lineto
65473.1 31804.7 lineto
stroke
showpage
grestore
%%EOF
